Python/R for Data Science - 8 R for Data Sciences
…
# A tibble: 1 × 3
  `:)`  ` `   `2000`
  <chr> <chr> <chr> 
1 smile space number

8.1.2 Differences between tibble and data.frame.

8.1.2.1 Printing

Tibbles have a refined print method that shows only the first 10 rows and all the columns that fit on screen.

deck <- tibble(suit=rep(c('spades', 'hearts', 'clubs', 'diamonds'), 13), face=rep(1:13, 4))
deck

# A tibble: 52 × 2
   suit      face
   <chr>    <int>
 1 spades       1
 2 hearts       2
 3 clubs        3
 4 diamonds     4
 5 spades       5
 6 hearts       6
 7 clubs        7
 8 diamonds     8
 9 spades       9
10 hearts      10
# … with 42 more rows
…
